Team Poster Project: Singapore Rainfall Visualisation Redesign
…
Main revisions:

Climatological Reference Bands to represent typical historical ranges (10th–90th and 25th–75th percentiles) as a baseline.

Decadal Overlays to compare specific benchmark years (1989, 1999, 2009, 2019) on a single seasonal axis.

Monsoonal Highlights & Direct Annotations to highlight the unprecedented dry spell during the 2019 Southwest Monsoon without legend lookup.

Log-scale Violin & Box Plots to display daily wet-day distributions cleanly without overplotting.

2 Import the Rainfall Data

The raw dataset is stored as a CSV file. The code below searches for the file in the project root first and then in data/raw/ to ensure the report renders reliably.

# A tibble: 16,953 × 13
   Station  Year Month   Day `Daily Rainfall Total (mm)` Highest 30 Min Rainfa…¹
   <chr>   <dbl> <dbl> <dbl>                       <dbl>                   <dbl>
 1 Changi   1980     1     1                         0                        NA
 2 Changi   1980     1     2                         0                        NA
 3 Changi   1980     1     3                         0                        NA
 4 Changi   1980     1     4                         0                        NA
 5 Changi   1980     1     5                         8                        NA
 6 Changi   1980     1     6                         9.1                      NA
 7 Changi   1980     1     7                         7.9                      NA
 8 Changi   1980     1     8                         0                        NA
 9 Changi   1980     1     9                         0                        NA
10 Changi   1980     1    10                         0                        NA
# ℹ 16,943 more rows
# ℹ abbreviated name: ¹​`Highest 30 Min Rainfall (mm)`
# ℹ 7 more variables: `Highest 60 Min Rainfall (mm)` <dbl>,
#   `Highest 120 Min Rainfall (mm)` <dbl>, `Mean Temperature (°C)` <dbl>,
#   `Maximum Temperature (°C)` <dbl>, `Minimum Temperature (°C)` <dbl>,
#   `Mean Wind Speed (km/h)` <dbl>, `Max Wind Speed (km/h)` <dbl>
…
